TAREA2/cmos_version/resultados.vcd
$date
	Fri May  3 22:58:50 2024
$end
$version
	Icarus Verilog
$end
$timescale
	1s
$end
$scope module controller_tb $end
$scope module U0 $end
$var wire 1 ! clk $end
$var wire 8 " input_password [7:0] $end
$var wire 1 # reset $end
$var wire 1 $ sensor_entrance $end
$var wire 1 % sensor_exit $end
$var wire 1 & gate_open $end
$var wire 1 ' gate_close $end
$var wire 3 ( current_state [2:0] $end
$var wire 3 ) count0 [2:0] $end
$var wire 1 * alarm_wrong_pin $end
$var wire 1 + alarm_block $end
$var wire 1 , _065_ $end
$var wire 1 - _064_ $end
$var wire 1 . _063_ $end
$var wire 1 / _062_ $end
$var wire 1 0 _061_ $end
$var wire 1 1 _060_ $end
$var wire 1 2 _059_ $end
$var wire 1 3 _058_ $end
$var wire 1 4 _057_ $end
$var wire 1 5 _056_ $end
$var wire 1 6 _055_ $end
$var wire 1 7 _054_ $end
$var wire 1 8 _053_ $end
$var wire 1 9 _052_ $end
$var wire 1 : _051_ $end
$var wire 1 ; _050_ $end
$var wire 1 < _049_ $end
$var wire 1 = _048_ $end
$var wire 1 > _047_ $end
$var wire 1 ? _046_ $end
$var wire 1 @ _045_ $end
$var wire 1 A _044_ $end
$var wire 1 B _043_ $end
$var wire 1 C _042_ $end
$var wire 1 D _041_ $end
$var wire 1 E _040_ $end
$var wire 1 F _039_ $end
$var wire 1 G _038_ $end
$var wire 1 H _037_ $end
$var wire 1 I _036_ $end
$var wire 1 J _035_ $end
$var wire 1 K _034_ $end
$var wire 1 L _033_ $end
$var wire 1 M _032_ $end
$var wire 1 N _031_ $end
$var wire 1 O _030_ $end
$var wire 1 P _029_ $end
$var wire 1 Q _028_ $end
$var wire 1 R _027_ $end
$var wire 1 S _026_ $end
$var wire 1 T _025_ $end
$var wire 1 U _024_ $end
$var wire 1 V _023_ $end
$var wire 1 W _022_ $end
$var wire 1 X _021_ $end
$var wire 1 Y _020_ $end
$var wire 1 Z _019_ $end
$var wire 1 [ _018_ $end
$var wire 1 \ _017_ $end
$var wire 1 ] _016_ $end
$var wire 1 ^ _015_ $end
$var wire 1 _ _014_ $end
$var wire 1 ` _013_ $end
$var wire 1 a _012_ $end
$var wire 1 b _011_ $end
$var wire 1 c _010_ $end
$var wire 1 d _009_ $end
$var wire 1 e _008_ $end
$var wire 1 f _007_ $end
$var wire 1 g _006_ $end
$var wire 1 h _005_ $end
$var wire 1 i _004_ $end
$var wire 1 j _003_ $end
$var wire 1 k _002_ $end
$var wire 1 l _001_ $end
$var wire 1 m _000_ $end
$scope module _066_ $end
$var wire 1 n A $end
$var wire 1 h Y $end
$upscope $end
$scope module _067_ $end
$var wire 1 o A $end
$var wire 1 g Y $end
$upscope $end
$scope module _068_ $end
$var wire 1 p A $end
$var wire 1 f Y $end
$upscope $end
$scope module _069_ $end
$var wire 1 q A $end
$var wire 1 e Y $end
$upscope $end
$scope module _070_ $end
$var wire 1 r A $end
$var wire 1 d Y $end
$upscope $end
$scope module _071_ $end
$var wire 1 s A $end
$var wire 1 c Y $end
$upscope $end
$scope module _072_ $end
$var wire 1 # A $end
$var wire 1 b Y $end
$upscope $end
$scope module _073_ $end
$var wire 1 t A $end
$var wire 1 a Y $end
$upscope $end
$scope module _074_ $end
$var wire 1 u A $end
$var wire 1 ` Y $end
$upscope $end
$scope module _075_ $end
$var wire 1 $ A $end
$var wire 1 _ Y $end
$upscope $end
$scope module _076_ $end
$var wire 1 v A $end
$var wire 1 w B $end
$var wire 1 ^ Y $end
$upscope $end
$scope module _077_ $end
$var wire 1 c A $end
$var wire 1 ^ B $end
$var wire 1 ] Y $end
$upscope $end
$scope module _078_ $end
$var wire 1 _ A $end
$var wire 1 ] B $end
$var wire 1 \ Y $end
$upscope $end
$scope module _079_ $end
$var wire 1 x A $end
$var wire 1 ^ B $end
$var wire 1 [ Y $end
$upscope $end
$scope module _080_ $end
$var wire 1 [ A $end
$var wire 1 Z Y $end
$upscope $end
$scope module _081_ $end
$var wire 1 y A $end
$var wire 1 z B $end
$var wire 1 Y Y $end
$upscope $end
$scope module _082_ $end
$var wire 1 { A $end
$var wire 1 d B $end
$var wire 1 X Y $end
$upscope $end
$scope module _083_ $end
$var wire 1 | A $end
$var wire 1 Y B $end
$var wire 1 + Y $end
$upscope $end
$scope module _084_ $end
$var wire 1 + A $end
$var wire 1 W Y $end
$upscope $end
$scope module _085_ $end
$var wire 1 e A $end
$var wire 1 } B $end
$var wire 1 V Y $end
$upscope $end
$scope module _086_ $end
$var wire 1 ~ A $end
$var wire 1 !" B $end
$var wire 1 U Y $end
$upscope $end
$scope module _087_ $end
$var wire 1 "" A $end
$var wire 1 #" B $end
$var wire 1 T Y $end
$upscope $end
$scope module _088_ $end
$var wire 1 U A $end
$var wire 1 T B $end
$var wire 1 S Y $end
$upscope $end
$scope module _089_ $end
$var wire 1 S A $end
$var wire 1 R Y $end
$upscope $end
$scope module _090_ $end
$var wire 1 $" A $end
$var wire 1 %" B $end
$var wire 1 Q Y $end
$upscope $end
$scope module _091_ $end
$var wire 1 Q A $end
$var wire 1 P Y $end
$upscope $end
$scope module _092_ $end
$var wire 1 a A $end
$var wire 1 &" B $end
$var wire 1 O Y $end
$upscope $end
$scope module _093_ $end
$var wire 1 '" A $end
$var wire 1 ` B $end
$var wire 1 N Y $end
$upscope $end
$scope module _094_ $end
$var wire 1 Q A $end
$var wire 1 N B $end
$var wire 1 M Y $end
$upscope $end
$scope module _095_ $end
$var wire 1 P A $end
$var wire 1 O B $end
$var wire 1 L Y $end
$upscope $end
$scope module _096_ $end
$var wire 1 S A $end
$var wire 1 L B $end
$var wire 1 K Y $end
$upscope $end
$scope module _097_ $end
$var wire 1 R A $end
$var wire 1 M B $end
$var wire 1 J Y $end
$upscope $end
$scope module _098_ $end
$var wire 1 V A $end
$var wire 1 K B $end
$var wire 1 I Y $end
$upscope $end
$scope module _099_ $end
$var wire 1 \ A $end
$var wire 1 I B $end
$var wire 1 H Y $end
$upscope $end
$scope module _100_ $end
$var wire 1 # A $end
$var wire 1 H B $end
$var wire 1 m Y $end
$upscope $end
$scope module _101_ $end
$var wire 1 d A $end
$var wire 1 (" B $end
$var wire 1 G Y $end
$upscope $end
$scope module _102_ $end
$var wire 1 e A $end
$var wire 1 G B $end
$var wire 1 F Y $end
$upscope $end
$scope module _103_ $end
$var wire 1 F A $end
$var wire 1 & Y $end
$upscope $end
$scope module _104_ $end
$var wire 1 % A $end
$var wire 1 F B $end
$var wire 1 E Y $end
$upscope $end
$scope module _105_ $end
$var wire 1 % A $end
$var wire 1 \ B $end
$var wire 1 D Y $end
$upscope $end
$scope module _106_ $end
$var wire 1 [ A $end
$var wire 1 J B $end
$var wire 1 C Y $end
$upscope $end
$scope module _107_ $end
$var wire 1 + A $end
$var wire 1 C B $end
$var wire 1 B Y $end
$upscope $end
$scope module _108_ $end
$var wire 1 D A $end
$var wire 1 B B $end
$var wire 1 A Y $end
$upscope $end
$scope module _109_ $end
$var wire 1 E A $end
$var wire 1 A B $end
$var wire 1 @ Y $end
$upscope $end
$scope module _110_ $end
$var wire 1 # A $end
$var wire 1 @ B $end
$var wire 1 l Y $end
$upscope $end
$scope module _111_ $end
$var wire 1 )" A $end
$var wire 1 *" B $end
$var wire 1 ? Y $end
$upscope $end
$scope module _112_ $end
$var wire 1 ? A $end
$var wire 1 > Y $end
$upscope $end
$scope module _113_ $end
$var wire 1 h A $end
$var wire 1 ? B $end
$var wire 1 = Y $end
$upscope $end
$scope module _114_ $end
$var wire 1 K A $end
$var wire 1 = B $end
$var wire 1 < Y $end
$upscope $end
$scope module _115_ $end
$var wire 1 W A $end
$var wire 1 < B $end
$var wire 1 ; Y $end
$upscope $end
$scope module _116_ $end
$var wire 1 X A $end
$var wire 1 I B $end
$var wire 1 : Y $end
$upscope $end
$scope module _117_ $end
$var wire 1 ; A $end
$var wire 1 : B $end
$var wire 1 9 Y $end
$upscope $end
$scope module _118_ $end
$var wire 1 9 A $end
$var wire 1 8 Y $end
$upscope $end
$scope module _119_ $end
$var wire 1 f A $end
$var wire 1 8 B $end
$var wire 1 7 Y $end
$upscope $end
$scope module _120_ $end
$var wire 1 h A $end
$var wire 1 I B $end
$var wire 1 6 Y $end
$upscope $end
$scope module _121_ $end
$var wire 1 f A $end
$var wire 1 6 B $end
$var wire 1 5 Y $end
$upscope $end
$scope module _122_ $end
$var wire 1 b A $end
$var wire 1 5 B $end
$var wire 1 4 Y $end
$upscope $end
$scope module _123_ $end
$var wire 1 7 A $end
$var wire 1 4 B $end
$var wire 1 k Y $end
$upscope $end
$scope module _124_ $end
$var wire 1 g A $end
$var wire 1 9 B $end
$var wire 1 3 Y $end
$upscope $end
$scope module _125_ $end
$var wire 1 > A $end
$var wire 1 6 B $end
$var wire 1 2 Y $end
$upscope $end
$scope module _126_ $end
$var wire 1 3 A $end
$var wire 1 2 B $end
$var wire 1 1 Y $end
$upscope $end
$scope module _127_ $end
$var wire 1 +" A $end
$var wire 1 ," B $end
$var wire 1 0 Y $end
$upscope $end
$scope module _128_ $end
$var wire 1 # A $end
$var wire 1 0 B $end
$var wire 1 / Y $end
$upscope $end
$scope module _129_ $end
$var wire 1 / A $end
$var wire 1 . Y $end
$upscope $end
$scope module _130_ $end
$var wire 1 1 A $end
$var wire 1 . B $end
$var wire 1 j Y $end
$upscope $end
$scope module _131_ $end
$var wire 1 -" A $end
$var wire 1 b B $end
$var wire 1 - Y $end
$upscope $end
$scope module _132_ $end
$var wire 1 9 A $end
$var wire 1 - B $end
$var wire 1 i Y $end
$upscope $end
$scope module _133_ $end
$var wire 1 ." A $end
$var wire 1 G B $end
$var wire 1 ' Y $end
$upscope $end
$scope module _134_ $end
$var wire 1 Z A $end
$var wire 1 = B $end
$var wire 1 , Y $end
$upscope $end
$scope module _135_ $end
$var wire 1 K A $end
$var wire 1 , B $end
$var wire 1 * Y $end
$upscope $end
$scope module _136_ $end
$var wire 1 ! C $end
$var wire 1 m D $end
$var reg 1 /" Q $end
$upscope $end
$scope module _137_ $end
$var wire 1 ! C $end
$var wire 1 l D $end
$var reg 1 0" Q $end
$upscope $end
$scope module _138_ $end
$var wire 1 ! C $end
$var wire 1 1" D $end
$var reg 1 2" Q $end
$upscope $end
$scope module _139_ $end
$var wire 1 ! C $end
$var wire 1 k D $end
$var reg 1 3" Q $end
$upscope $end
$scope module _140_ $end
$var wire 1 ! C $end
$var wire 1 j D $end
$var reg 1 4" Q $end
$upscope $end
$scope module _141_ $end
$var wire 1 ! C $end
$var wire 1 i D $end
$var reg 1 5" Q $end
$upscope $end
$upscope $end
$upscope $end
$enddefinitions $end
#0
$dumpvars
x5"
x4"
x3"
x2"
01"
x0"
x/"
x."
x-"
x,"
x+"
x*"
x)"
x("
x'"
x&"
x%"
x$"
x#"
x""
x!"
x~
x}
x|
x{
xz
xy
xx
xw
xv
xu
xt
xs
xr
xq
xp
xo
xn
xm
xl
xk
xj
xi
xh
xg
xf
xe
xd
xc
1b
xa
x`
1_
x^
x]
0\
x[
xZ
xY
xX
xW
xV
xU
xT
xS
xR
xQ
xP
xO
xN
xM
xL
xK
xJ
xI
xH
xG
xF
xE
1D
xC
xB
xA
x@
x?
x>
x=
x<
x;
x:
x9
x8
x7
x6
x5
x4
x3
x2
x1
x0
x/
x.
x-
x,
x+
x*
bx )
bx (
x'
x&
0%
0$
0#
bx "
0!
$end
#5
1e
0."
0|
0{
0v
0q
b0xx (
02"
0k
0i
0j
14
1-
1.
0m
0l
0/
0b
1!
1#
#10
0!
#15
11
1@
18
05
02
0A
09
0E
0;
0*
0&
1H
16
1B
1:
1F
1'
1W
1,
0]
0I
0+
0C
0=
03
0>
07
0X
0G
0Z
10
1?
1^
1V
1Y
1[
1h
1g
1f
1d
1c
0-"
0n
0+"
0)"
0o
0,"
0*"
0p
0y
0w
0r
0("
0}
0z
0x
0s
05"
04"
b0 )
03"
00"
b0 (
0/"
0k
0i
0j
14
1-
1.
0m
0l
0/
1b
1!
0#
#20
0!
#25
1m
0H
1\
0_
1!
1$
#30
0!
#35
1l
0@
0m
1A
1H
0B
0\
1C
1Z
1]
0V
0[
0c
1("
1}
1z
1x
1s
b1 (
1/"
0<
0J
1K
1M
1R
0L
0S
1O
0N
1P
1U
1T
0Q
0a
1`
1t
0u
0~
0!"
0""
0#"
1$"
1%"
0&"
1'"
1!
b1001001 "
#40
0!
#45
0A
08
19
1E
1B
1&
0:
0F
0'
0C
0Z
1X
1G
1V
1[
0^
1c
0d
0("
0}
0z
0x
0s
1y
1w
1r
0/"
b10 (
10"
1_
1!
0$
#50
0!
#55
0l
1@
0E
1!
1%
#60
0!
#65
18
09
0&
1:
1F
1'
0]
0X
0G
1^
1d
0y
0w
0r
b0 (
00"
0l
1@
0E
1!
0%
#70
0!
#75
1!
#80
0!
#85
1m
0H
1\
0_
1!
1$
#90
0!
#95
1k
04
01
08
19
15
12
0:
06
0\
1I
1Z
1]
0V
0[
0c
1("
1}
1z
1x
1s
b1 (
1/"
1<
0K
1J
0R
1S
1L
0M
0P
0T
1Q
0O
1N
1a
0`
0t
1u
1""
1#"
0$"
1&"
0'"
1!
b10101010 "
#100
0!
#105
1j
0.
0k
1/
17
00
0f
1,"
1*"
1p
b1 )
13"
1O
0N
0U
0a
1`
1t
0u
1~
0&"
1'"
1!
b11101100 "
#110
0!
#115
14
13
05
0g
1f
1+"
1)"
1o
0,"
0*"
0p
14"
b10 )
03"
1l
0k
1j
0@
07
01
1A
18
0m
09
02
0B
1H
1:
16
1C
0I
0<
0J
1K
1R
0L
0S
1M
1P
1U
1T
0Q
0~
0""
0#"
1$"
1!
b1001001 "
#120
0!
#125
0j
11
03
0A
08
19
1E
1B
1&
0:
0F
0'
0C
0Z
1X
1G
1V
1[
0^
1c
0d
0("
0}
0z
0x
0s
1y
1w
1r
0/"
b10 (
10"
1_
1!
0$
#130
0!
#135
1.
0/
10
1g
0+"
0)"
0o
b0 )
04"
0l
1@
0E
1!
1%
#140
0!
#145
18
09
0&
1:
1F
1'
0]
0X
0G
1^
1d
0y
0w
0r
b0 (
00"
0l
1@
0E
1!
0%
#150
0!
#155
1m
0H
1\
0_
1!
1$
#160
0!
#165
1k
04
01
08
19
15
12
0:
06
0\
1I
1Z
1]
0V
0[
0c
1("
1}
1z
1x
1s
b1 (
1/"
1<
0K
1J
0R
1S
1L
0M
0P
0T
1Q
0O
1N
1a
0`
0t
1u
1""
1#"
0$"
1&"
0'"
1!
b10101010 "
#170
0!
#175
1j
0.
0k
1/
17
00
0f
1,"
1*"
1p
b1 )
13"
1O
0N
0U
0a
1`
1t
0u
1~
0""
0&"
1'"
1!
b11001100 "
#180
0!
#185
1k
07
1f
0g
0,"
0*"
0p
1+"
1)"
1o
03"
b10 )
14"
0~
1!"
1""
0%"
1!
b11110000 "
#190
0!
#195
0j
1*
11
0<
0,
02
0k
1=
1>
17
0?
0f
1,"
1*"
1p
b11 )
13"
1!
#200
0!
#205
1,
14
1.
0/
0=
05
0>
10
1?
1f
1g
0,"
0*"
0p
0+"
0)"
0o
03"
b0 )
04"
0j
1l
0k
11
0@
07
03
1A
18
0m
09
0B
1H
1:
16
1C
0I
0*
0J
1K
1R
0L
0S
1M
1P
1U
1T
0Q
0!"
0""
0#"
1$"
1%"
1!
b1001001 "
#210
0!
#215
08
0A
19
1E
1&
1B
0:
0F
0'
0C
1X
1G
0Z
1]
0^
1V
1[
0d
1c
1y
1w
1r
0("
0}
0z
0x
0s
10"
b10 (
0/"
1_
1!
0$
#220
0!
#225
0l
1@
0E
1!
1%
#230
0!
#235
18
09
0&
1:
1F
1'
0]
0X
0G
1^
1d
0y
0w
0r
b0 (
00"
0l
1@
0E
1!
0%
#240
0!
#245
1!
1%
#250
0!
#255
1l
0@
1m
1A
0H
0D
1\
0_
1!
1$
#260
0!
#265
1k
04
01
15
12
08
1D
19
06
0B
0\
0W
0:
1I
1+
0Z
1]
1X
0V
1[
0Y
0^
0c
0d
1("
1}
1z
1x
1s
1y
1w
1r
1/"
b11 (
10"
1<
0K
1J
0R
1S
1L
0M
0P
0T
1Q
0O
1N
1a
0`
0t
1u
1""
1#"
0$"
1&"
0'"
1!
b10101010 "
#270
0!
#275
1j
0.
0k
1/
17
00
0f
1,"
1*"
1p
b1 )
13"
1O
0N
0U
0a
1`
1t
0u
1~
0""
0&"
1'"
1!
b11001100 "
#280
0!
#285
14
05
13
1f
0g
0,"
0*"
0p
1+"
1)"
1o
03"
b10 )
14"
0k
1j
07
01
18
0m
02
09
1H
16
1;
0I
0<
0J
1K
1R
0L
0S
1M
1P
1U
1T
0Q
0~
0#"
1$"
1!
b1001001 "
#290
0!
#295
0j
11
0l
03
08
1@
19
0A
0;
1B
1&
1W
0F
0'
0+
1G
1V
1Y
1c
0("
0}
0z
0x
0s
b10 (
0/"
1_
1!
0$
#300
0!
#305
18
09
0&
1:
1F
1'
1.
0]
0/
0X
0G
1^
10
1d
1g
0y
0w
0r
0+"
0)"
0o
b0 (
00"
b0 )
04"
1!
#310
0!
#315
1!
0%
